%YAML 1.1
%TAG !u! tag:unity3d.com,2011:
--- !u!114 &-7670209158360629087
MonoBehaviour:
  m_ObjectHideFlags: 3
  m_CorrespondingSourceObject: {fileID: 0}
  m_PrefabInstance: {fileID: 0}
  m_PrefabAsset: {fileID: 0}
  m_GameObject: {fileID: 0}
  m_Enabled: 1
  m_EditorHideFlags: 0
  m_Script: {fileID: 11500000, guid: 0b2db86121404754db890f4c8dfe81b2, type: 3}
  m_Name: Bloom
  m_EditorClassIdentifier: 
  active: 1
  m_AdvancedMode: 0
  threshold:
    m_OverrideState: 1
    m_Value: 0.5
    min: 0
  intensity:
    m_OverrideState: 1
    m_Value: 1
    min: 0
  scatter:
    m_OverrideState: 1
    m_Value: 0.25
    min: 0
    max: 1
  clamp:
    m_OverrideState: 0
    m_Value: 65472
    min: 0
  tint:
    m_OverrideState: 0
    m_Value: {r: 1, g: 1, b: 1, a: 1}
    hdr: 0
    showAlpha: 0
    showEyeDropper: 1
  highQualityFiltering:
    m_OverrideState: 0
    m_Value: 0
  dirtTexture:
    m_OverrideState: 0
    m_Value: {fileID: 0}
  dirtIntensity:
    m_OverrideState: 0
    m_Value: 0
    min: 0
--- !u!114 &-6726781888542759760
MonoBehaviour:
  m_ObjectHideFlags: 3
  m_CorrespondingSourceObject: {fileID: 0}
  m_PrefabInstance: {fileID: 0}
  m_PrefabAsset: {fileID: 0}
  m_GameObject: {fileID: 0}
  m_Enabled: 1
  m_EditorHideFlags: 0
  m_Script: {fileID: 11500000, guid: c01700fd266d6914ababb731e09af2eb, type: 3}
  m_Name: DepthOfField
  m_EditorClassIdentifier: 
  active: 1
  m_AdvancedMode: 0
  mode:
    m_OverrideState: 1
    m_Value: 1
  gaussianStart:
    m_OverrideState: 1
    m_Value: 30
    min: 0
  gaussianEnd:
    m_OverrideState: 1
    m_Value: 50
    min: 0
  gaussianMaxRadius:
    m_OverrideState: 0
    m_Value: 1
    min: 0.5
    max: 1.5
  highQualitySampling:
    m_OverrideState: 0
    m_Value: 0
  focusDistance:
    m_OverrideState: 0
    m_Value: 10
    min: 0.1
  aperture:
    m_OverrideState: 0
    m_Value: 5.6
    min: 1
    max: 32
  focalLength:
    m_OverrideState: 0
    m_Value: 50
    min: 1
    max: 300
  bladeCount:
    m_OverrideState: 0
    m_Value: 5
    min: 3
    max: 9
  bladeCurvature:
    m_OverrideState: 0
    m_Value: 1
    min: 0
    max: 1
  bladeRotation:
    m_OverrideState: 0
    m_Value: 0
    min: -180
    max: 180
--- !u!114 &-2497986177611838885
MonoBehaviour:
  m_ObjectHideFlags: 3
  m_CorrespondingSourceObject: {fileID: 0}
  m_PrefabInstance: {fileID: 0}
  m_PrefabAsset: {fileID: 0}
  m_GameObject: {fileID: 0}
  m_Enabled: 1
  m_EditorHideFlags: 0
  m_Script: {fileID: 11500000, guid: 66f335fb1ffd8684294ad653bf1c7564, type: 3}
  m_Name: ColorAdjustments
  m_EditorClassIdentifier: 
  active: 1
  m_AdvancedMode: 0
  postExposure:
    m_OverrideState: 1
    m_Value: 1
  contrast:
    m_OverrideState: 1
    m_Value: 1
    min: -100
    max: 100
  colorFilter:
    m_OverrideState: 0
    m_Value: {r: 1, g: 1, b: 1, a: 1}
    hdr: 1
    showAlpha: 0
    showEyeDropper: 1
  hueShift:
    m_OverrideState: 0
    m_Value: 0
    min: -180
    max: 180
  saturation:
    m_OverrideState: 1
    m_Value: 0
    min: -100
    max: 100
--- !u!114 &11400000
MonoBehaviour:
  m_ObjectHideFlags: 0
  m_CorrespondingSourceObject: {fileID: 0}
  m_PrefabInstance: {fileID: 0}
  m_PrefabAsset: {fileID: 0}
  m_GameObject: {fileID: 0}
  m_Enabled: 1
  m_EditorHideFlags: 0
  m_Script: {fileID: 11500000, guid: d7fd9488000d3734a9e00ee676215985, type: 3}
  m_Name: PostProcessing (URP) - DemoScene_Night
  m_EditorClassIdentifier: 
  components:
  - {fileID: -7670209158360629087}
  - {fileID: -2497986177611838885}
  - {fileID: 5178111901335096526}
  - {fileID: 8257787063815352618}
  - {fileID: 5952476157305848878}
  - {fileID: -6726781888542759760}
--- !u!114 &5178111901335096526
MonoBehaviour:
  m_ObjectHideFlags: 3
  m_CorrespondingSourceObject: {fileID: 0}
  m_PrefabInstance: {fileID: 0}
  m_PrefabAsset: {fileID: 0}
  m_GameObject: {fileID: 0}
  m_Enabled: 1
  m_EditorHideFlags: 0
  m_Script: {fileID: 11500000, guid: cdfbdbb87d3286943a057f7791b43141, type: 3}
  m_Name: ChannelMixer
  m_EditorClassIdentifier: 
  active: 1
  m_AdvancedMode: 0
  redOutRedIn:
    m_OverrideState: 1
    m_Value: 90
    min: -200
    max: 200
  redOutGreenIn:
    m_OverrideState: 1
    m_Value: 10
    min: -200
    max: 200
  redOutBlueIn:
    m_OverrideState: 0
    m_Value: 0
    min: -200
    max: 200
  greenOutRedIn:
    m_OverrideState: 0
    m_Value: 0
    min: -200
    max: 200
  greenOutGreenIn:
    m_OverrideState: 0
    m_Value: 100
    min: -200
    max: 200
  greenOutBlueIn:
    m_OverrideState: 0
    m_Value: 0
    min: -200
    max: 200
  blueOutRedIn:
    m_OverrideState: 0
    m_Value: 0
    min: -200
    max: 200
  blueOutGreenIn:
    m_OverrideState: 0
    m_Value: 0
    min: -200
    max: 200
  blueOutBlueIn:
    m_OverrideState: 0
    m_Value: 100
    min: -200
    max: 200
--- !u!114 &5952476157305848878
MonoBehaviour:
  m_ObjectHideFlags: 3
  m_CorrespondingSourceObject: {fileID: 0}
  m_PrefabInstance: {fileID: 0}
  m_PrefabAsset: {fileID: 0}
  m_GameObject: {fileID: 0}
  m_Enabled: 1
  m_EditorHideFlags: 0
  m_Script: {fileID: 11500000, guid: 3eb4b772797da9440885e8bd939e9560, type: 3}
  m_Name: ColorCurves
  m_EditorClassIdentifier: 
  active: 1
  m_AdvancedMode: 0
  master:
    m_OverrideState: 0
    m_Value:
      <length>k__BackingField: 2
      m_Loop: 0
      m_ZeroValue: 0
      m_Range: 1
      m_Curve:
        serializedVersion: 2
        m_Curve:
        - serializedVersion: 3
          time: 0
          value: 0
          inSlope: 1
          outSlope: 1
          tangentMode: 0
          weightedMode: 0
          inWeight: 0
          outWeight: 0
        - serializedVersion: 3
          time: 1
          value: 1
          inSlope: 1
          outSlope: 1
          tangentMode: 0
          weightedMode: 0
          inWeight: 0
          outWeight: 0
        m_PreInfinity: 2
        m_PostInfinity: 2
        m_RotationOrder: 4
  red:
    m_OverrideState: 0
    m_Value:
      <length>k__BackingField: 2
      m_Loop: 0
      m_ZeroValue: 0
      m_Range: 1
      m_Curve:
        serializedVersion: 2
        m_Curve:
        - serializedVersion: 3
          time: 0
          value: 0
          inSlope: 1
          outSlope: 1
          tangentMode: 0
          weightedMode: 0
          inWeight: 0
          outWeight: 0
        - serializedVersion: 3
          time: 1
          value: 1
          inSlope: 1
          outSlope: 1
          tangentMode: 0
          weightedMode: 0
          inWeight: 0
          outWeight: 0
        m_PreInfinity: 2
        m_PostInfinity: 2
        m_RotationOrder: 4
  green:
    m_OverrideState: 0
    m_Value:
      <length>k__BackingField: 2
      m_Loop: 0
      m_ZeroValue: 0
      m_Range: 1
      m_Curve:
        serializedVersion: 2
        m_Curve:
        - serializedVersion: 3
          time: 0
          value: 0
          inSlope: 1
          outSlope: 1
          tangentMode: 0
          weightedMode: 0
          inWeight: 0
          outWeight: 0
        - serializedVersion: 3
          time: 1
          value: 1
          inSlope: 1
          outSlope: 1
          tangentMode: 0
          weightedMode: 0
          inWeight: 0
          outWeight: 0
        m_PreInfinity: 2
        m_PostInfinity: 2
        m_RotationOrder: 4
  blue:
    m_OverrideState: 0
    m_Value:
      <length>k__BackingField: 2
      m_Loop: 0
      m_ZeroValue: 0
      m_Range: 1
      m_Curve:
        serializedVersion: 2
        m_Curve:
        - serializedVersion: 3
          time: 0
          value: 0
          inSlope: 1
          outSlope: 1
          tangentMode: 0
          weightedMode: 0
          inWeight: 0
          outWeight: 0
        - serializedVersion: 3
          time: 1
          value: 1
          inSlope: 1
          outSlope: 1
          tangentMode: 0
          weightedMode: 0
          inWeight: 0
          outWeight: 0
        m_PreInfinity: 2
        m_PostInfinity: 2
        m_RotationOrder: 4
  hueVsHue:
    m_OverrideState: 1
    m_Value:
      <length>k__BackingField: 0
      m_Loop: 1
      m_ZeroValue: 0.5
      m_Range: 1
      m_Curve:
        serializedVersion: 2
        m_Curve: []
        m_PreInfinity: 2
        m_PostInfinity: 2
        m_RotationOrder: 4
  hueVsSat:
    m_OverrideState: 0
    m_Value:
      <length>k__BackingField: 0
      m_Loop: 1
      m_ZeroValue: 0.5
      m_Range: 1
      m_Curve:
        serializedVersion: 2
        m_Curve: []
        m_PreInfinity: 2
        m_PostInfinity: 2
        m_RotationOrder: 4
  satVsSat:
    m_OverrideState: 0
    m_Value:
      <length>k__BackingField: 0
      m_Loop: 0
      m_ZeroValue: 0.5
      m_Range: 1
      m_Curve:
        serializedVersion: 2
        m_Curve: []
        m_PreInfinity: 2
        m_PostInfinity: 2
        m_RotationOrder: 4
  lumVsSat:
    m_OverrideState: 0
    m_Value:
      <length>k__BackingField: 0
      m_Loop: 0
      m_ZeroValue: 0.5
      m_Range: 1
      m_Curve:
        serializedVersion: 2
        m_Curve: []
        m_PreInfinity: 2
        m_PostInfinity: 2
        m_RotationOrder: 4
--- !u!114 &8257787063815352618
MonoBehaviour:
  m_ObjectHideFlags: 3
  m_CorrespondingSourceObject: {fileID: 0}
  m_PrefabInstance: {fileID: 0}
  m_PrefabAsset: {fileID: 0}
  m_GameObject: {fileID: 0}
  m_Enabled: 1
  m_EditorHideFlags: 0
  m_Script: {fileID: 11500000, guid: 5485954d14dfb9a4c8ead8edb0ded5b1, type: 3}
  m_Name: LiftGammaGain
  m_EditorClassIdentifier: 
  active: 1
  m_AdvancedMode: 0
  lift:
    m_OverrideState: 1
    m_Value: {x: 0.8160118, y: 0.8620089, z: 1, w: 0}
  gamma:
    m_OverrideState: 1
    m_Value: {x: 0.75931555, y: 0.85153586, z: 1, w: 0}
  gain:
    m_OverrideState: 1
    m_Value: {x: 1, y: 1, z: 1, w: 0}
